…
data
## # A tibble: 5,681,118 x 6
##     line date       scheduled_depar… actual_departure scheduled_arriv…
##    <int> <date>                <dbl>            <dbl>            <dbl>
##  1    10 2019-07-14            18390            18333            18468
##  2    10 2019-07-14            20190            20192            20268
##  3    10 2019-07-14            21090            21103            21168
##  4    10 2019-07-14            21990            22063            22068
##  5    10 2019-07-14            22890            22883            22968
##  6    10 2019-07-14            23790            23690            23868
##  7    10 2019-07-14            24690            24733            24768
##  8    10 2019-07-14            25590            25584            25668
##  9    10 2019-07-14            26490            26473            26568
## 10    10 2019-07-14            27390            27436            27468
## # … with 5,681,108 more rows, and 1 more variable: actual_arrival <dbl>
```
…
``` r
data <- data %>%
  filter(line < 30) %>%
  mutate(
    weekday = lubridate::wday(
      date, label = TRUE, 
      locale = "en_US.UTF-8", week_start = 1
    ),
    hour = (scheduled_departure/3600),
    hour = ifelse(hour < 4, hour + 24, hour)
  ) %>% 
  select(grep("arr|dep", names(.), invert = TRUE, value = TRUE), everything())

data
## # A tibble: 2,623,464 x 8
##     line date       weekday  hour scheduled_depar… actual_departure
##    <int> <date>     <ord>   <dbl>            <dbl>            <dbl>
##  1    10 2019-07-14 Sun      5.11            18390            18333
##  2    10 2019-07-14 Sun      5.61            20190            20192
##  3    10 2019-07-14 Sun      5.86            21090            21103
##  4    10 2019-07-14 Sun      6.11            21990            22063
##  5    10 2019-07-14 Sun      6.36            22890            22883
##  6    10 2019-07-14 Sun      6.61            23790            23690
##  7    10 2019-07-14 Sun      6.86            24690            24733
##  8    10 2019-07-14 Sun      7.11            25590            25584
##  9    10 2019-07-14 Sun      7.36            26490            26473
## 10    10 2019-07-14 Sun      7.61            27390            27436
## # … with 2,623,454 more rows, and 2 more variables:
## #   scheduled_arrival <dbl>, actual_arrival <dbl>
```
…
## Analysis

### Load line data

Select the line and read departure and arrival data

``` r
line <- 11
line_file <- file.path("line-data", sprintf("line-%d.rds", line))
data <- readRDS(line_file)
data
## # A tibble: 254,103 x 8
##     line date       weekday  hour scheduled_depar… actual_departure
##    <int> <date>     <ord>   <dbl>            <dbl>            <dbl>
##  1    11 2019-07-16 Tue      25.1             3960             3943
##  2    11 2019-07-17 Wed      25.1             3960             3965
##  3    11 2019-07-18 Thu      25.1             3960             3935
##  4    11 2019-07-19 Fri      24.9             3360             3489
##  5    11 2019-07-19 Fri      25.1             3960             4034
##  6    11 2019-07-20 Sat      24.9             3360             3401
##  7    11 2019-07-20 Sat      25.1             3960             4015
##  8    11 2019-07-14 Sun      25.1             3960             4033
##  9    11 2019-07-15 Mon      25.1             3960             3954
## 10    11 2019-07-17 Wed      24.7             2412             2414
## # … with 254,093 more rows, and 2 more variables: scheduled_arrival <dbl>,
## #   actual_arrival <dbl>
```
…
``` r
delays <- data %>%
  mutate(
    delay = ((actual_departure - scheduled_departure) +
               (actual_arrival - scheduled_arrival)) / 2 / 60
  ) %>% 
  group_by(
    weekday,
    hour = cut(hour, 0:48, labels = ifelse(0:47 < 24, 0:47, paste0("+", floor(0:47) - 24))),
    delay = cut(delay, c(-Inf, 1:5, Inf))
  ) %>% 
  summarize(count = n())

delays
## # A tibble: 801 x 4
## # Groups:   weekday, hour [155]
##    weekday hour  delay    count
##    <ord>   <fct> <fct>    <int>
##  1 Mon     4     (-Inf,1]    60
##  2 Mon     4     (1,2]        4
##  3 Mon     5     (-Inf,1]  1069
##  4 Mon     5     (1,2]      140
##  5 Mon     5     (2,3]       46
##  6 Mon     5     (3,4]        5
##  7 Mon     6     (-Inf,1]  1650
##  8 Mon     6     (1,2]      379
##  9 Mon     6     (2,3]      119
## 10 Mon     6     (3,4]       51
## # … with 791 more rows
```
…
